\relax 
\providecommand\HyperFirstAtBeginDocument{\AtBeginDocument}
\HyperFirstAtBeginDocument{\ifx\hyper@anchor\@undefined
\global\let\oldcontentsline\contentsline
\gdef\contentsline#1#2#3#4{\oldcontentsline{#1}{#2}{#3}}
\global\let\oldnewlabel\newlabel
\gdef\newlabel#1#2{\newlabelxx{#1}#2}
\gdef\newlabelxx#1#2#3#4#5#6{\oldnewlabel{#1}{{#2}{#3}}}
\AtEndDocument{\ifx\hyper@anchor\@undefined
\let\contentsline\oldcontentsline
\let\newlabel\oldnewlabel
\fi}
\fi}
\global\let\hyper@last\relax 
\gdef\HyperFirstAtBeginDocument#1{#1}
\providecommand\HyField@AuxAddToFields[1]{}
\catcode`"\active
\@writefile{toc}{\beamer@endinputifotherversion {3.10pt}}
\@writefile{nav}{\beamer@endinputifotherversion {3.10pt}}
\select@language{brazil}
\@writefile{toc}{\select@language{brazil}}
\@writefile{lof}{\select@language{brazil}}
\@writefile{lot}{\select@language{brazil}}
\@writefile{nav}{\headcommand {\slideentry {0}{0}{1}{1/1}{}{0}}}
\@writefile{nav}{\headcommand {\beamer@framepages {1}{1}}}
\@writefile{nav}{\headcommand {\slideentry {0}{0}{2}{2/2}{}{0}}}
\@writefile{nav}{\headcommand {\beamer@framepages {2}{2}}}
\@writefile{toc}{\beamer@sectionintoc {1}{O Paradigma AGM}{3}{0}{1}}
\@writefile{nav}{\headcommand {\sectionentry {1}{O Paradigma AGM}{3}{O Paradigma AGM}{0}}}
\@writefile{nav}{\headcommand {\beamer@sectionpages {1}{2}}}
\@writefile{nav}{\headcommand {\beamer@subsectionpages {1}{2}}}
\@writefile{nav}{\headcommand {\slideentry {1}{0}{3}{3/3}{}{0}}}
\@writefile{nav}{\headcommand {\beamer@framepages {3}{3}}}
\@writefile{nav}{\headcommand {\beamer@subsectionentry {0}{1}{1}{4}{Expans\IeC {\~a}o}}\headcommand {\beamer@subsectionpages {3}{3}}}
\@writefile{nav}{\headcommand {\slideentry {1}{1}{1}{4/4}{Expans\IeC {\~a}o}{0}}}
\@writefile{nav}{\headcommand {\beamer@framepages {4}{4}}}
\@writefile{nav}{\headcommand {\beamer@subsectionentry {0}{1}{2}{5}{Contra\IeC {\c c}\IeC {\~a}o}}\headcommand {\beamer@subsectionpages {4}{4}}}
\@writefile{nav}{\headcommand {\slideentry {1}{2}{1}{5/5}{Contra\IeC {\c c}\IeC {\~a}o}{0}}}
\@writefile{nav}{\headcommand {\beamer@framepages {5}{5}}}
\@writefile{nav}{\headcommand {\slideentry {1}{2}{2}{6/6}{Contra\IeC {\c c}\IeC {\~a}o}{0}}}
\@writefile{nav}{\headcommand {\beamer@framepages {6}{6}}}
\@writefile{nav}{\headcommand {\beamer@subsectionentry {0}{1}{3}{7}{Revis\IeC {\~a}o}}\headcommand {\beamer@subsectionpages {5}{6}}}
\@writefile{nav}{\headcommand {\slideentry {1}{3}{1}{7/7}{Revis\IeC {\~a}o}{0}}}
\@writefile{nav}{\headcommand {\beamer@framepages {7}{7}}}
\@writefile{nav}{\headcommand {\slideentry {1}{3}{2}{8/8}{Revis\IeC {\~a}o}{0}}}
\@writefile{nav}{\headcommand {\beamer@framepages {8}{8}}}
\@writefile{nav}{\headcommand {\beamer@subsectionentry {0}{1}{4}{9}{Identidades}}\headcommand {\beamer@subsectionpages {7}{8}}}
\@writefile{nav}{\headcommand {\slideentry {1}{4}{1}{9/9}{Identidades}{0}}}
\@writefile{nav}{\headcommand {\beamer@framepages {9}{9}}}
\@writefile{nav}{\headcommand {\beamer@subsectionentry {0}{1}{5}{10}{Partial Meet}}\headcommand {\beamer@subsectionpages {9}{9}}}
\@writefile{nav}{\headcommand {\slideentry {1}{5}{1}{10/10}{Partial Meet}{0}}}
\@writefile{nav}{\headcommand {\beamer@framepages {10}{10}}}
\@writefile{nav}{\headcommand {\slideentry {1}{5}{2}{11/11}{Partial Meet}{0}}}
\@writefile{nav}{\headcommand {\beamer@framepages {11}{11}}}
\@writefile{nav}{\headcommand {\slideentry {1}{5}{3}{12/12}{Partial Meet}{0}}}
\@writefile{nav}{\headcommand {\beamer@framepages {12}{12}}}
\@writefile{nav}{\headcommand {\slideentry {1}{5}{4}{13/13}{Partial Meet}{0}}}
\@writefile{nav}{\headcommand {\beamer@framepages {13}{13}}}
\@writefile{nav}{\headcommand {\beamer@subsectionentry {0}{1}{6}{14}{Inconveni\IeC {\^e}ncias}}\headcommand {\beamer@subsectionpages {10}{13}}}
\@writefile{nav}{\headcommand {\slideentry {1}{6}{1}{14/14}{Inconveni\IeC {\^e}ncias}{0}}}
\@writefile{nav}{\headcommand {\beamer@framepages {14}{14}}}
\@writefile{toc}{\beamer@sectionintoc {2}{Bases de Cren\IeC {\c c}as}{15}{0}{2}}
\@writefile{nav}{\headcommand {\sectionentry {2}{Bases de Cren\IeC {\c c}as}{15}{Bases de Cren\IeC {\c c}as}{0}}}
\@writefile{nav}{\headcommand {\beamer@sectionpages {3}{14}}}
\@writefile{nav}{\headcommand {\beamer@subsectionpages {14}{14}}}
\@writefile{nav}{\headcommand {\slideentry {2}{0}{2}{15/15}{}{0}}}
\@writefile{nav}{\headcommand {\beamer@framepages {15}{15}}}
\@writefile{nav}{\headcommand {\beamer@subsectionentry {0}{2}{1}{16}{Partial Meet}}\headcommand {\beamer@subsectionpages {15}{15}}}
\@writefile{nav}{\headcommand {\slideentry {2}{1}{1}{16/16}{Partial Meet}{0}}}
\@writefile{nav}{\headcommand {\beamer@framepages {16}{16}}}
\@writefile{nav}{\headcommand {\beamer@subsectionentry {0}{2}{2}{17}{Partial Meet}}\headcommand {\beamer@subsectionpages {16}{16}}}
\@writefile{nav}{\headcommand {\slideentry {2}{2}{1}{17/17}{Partial Meet}{0}}}
\@writefile{nav}{\headcommand {\beamer@framepages {17}{17}}}
\@writefile{nav}{\headcommand {\slideentry {2}{2}{2}{18/18}{Partial Meet}{0}}}
\@writefile{nav}{\headcommand {\beamer@framepages {18}{18}}}
\@writefile{nav}{\headcommand {\slideentry {2}{2}{3}{19/19}{Partial Meet}{0}}}
\@writefile{nav}{\headcommand {\beamer@framepages {19}{19}}}
\@writefile{nav}{\headcommand {\slideentry {2}{2}{4}{20/20}{Partial Meet}{0}}}
\@writefile{nav}{\headcommand {\beamer@framepages {20}{20}}}
\@writefile{nav}{\headcommand {\beamer@subsectionentry {0}{2}{3}{21}{Kernel}}\headcommand {\beamer@subsectionpages {17}{20}}}
\@writefile{nav}{\headcommand {\slideentry {2}{3}{1}{21/21}{Kernel}{0}}}
\@writefile{nav}{\headcommand {\beamer@framepages {21}{21}}}
\@writefile{nav}{\headcommand {\slideentry {2}{3}{2}{22/22}{Kernel}{0}}}
\@writefile{nav}{\headcommand {\beamer@framepages {22}{22}}}
\@writefile{nav}{\headcommand {\slideentry {2}{3}{3}{23/23}{Kernel}{0}}}
\@writefile{nav}{\headcommand {\beamer@framepages {23}{23}}}
\@writefile{nav}{\headcommand {\slideentry {2}{3}{4}{24/24}{Kernel}{0}}}
\@writefile{nav}{\headcommand {\beamer@framepages {24}{24}}}
\@writefile{nav}{\headcommand {\slideentry {2}{3}{5}{25/25}{Kernel}{0}}}
\@writefile{nav}{\headcommand {\beamer@framepages {25}{25}}}
\@writefile{nav}{\headcommand {\slideentry {2}{3}{6}{26/26}{Kernel}{0}}}
\@writefile{nav}{\headcommand {\beamer@framepages {26}{26}}}
\@writefile{nav}{\headcommand {\slideentry {2}{3}{7}{27/27}{Kernel}{0}}}
\@writefile{nav}{\headcommand {\beamer@framepages {27}{27}}}
\@writefile{nav}{\headcommand {\beamer@subsectionentry {0}{2}{4}{28}{Rela\IeC {\c c}\IeC {\~o}es entre as constru\IeC {\c c}\IeC {\~o}es}}\headcommand {\beamer@subsectionpages {21}{27}}}
\@writefile{nav}{\headcommand {\slideentry {2}{4}{1}{28/28}{Rela\IeC {\c c}\IeC {\~o}es entre as constru\IeC {\c c}\IeC {\~o}es}{0}}}
\@writefile{nav}{\headcommand {\beamer@framepages {28}{28}}}
\@writefile{nav}{\headcommand {\slideentry {2}{4}{2}{29/29}{Rela\IeC {\c c}\IeC {\~o}es entre as constru\IeC {\c c}\IeC {\~o}es}{0}}}
\@writefile{nav}{\headcommand {\beamer@framepages {29}{29}}}
\@writefile{nav}{\headcommand {\slideentry {2}{4}{3}{30/30}{Rela\IeC {\c c}\IeC {\~o}es entre as constru\IeC {\c c}\IeC {\~o}es}{0}}}
\@writefile{nav}{\headcommand {\beamer@framepages {30}{30}}}
\@writefile{toc}{\beamer@sectionintoc {3}{Proposta}{31}{0}{3}}
\@writefile{nav}{\headcommand {\sectionentry {3}{Proposta}{31}{Proposta}{0}}}
\@writefile{nav}{\headcommand {\beamer@sectionpages {15}{30}}}
\@writefile{nav}{\headcommand {\beamer@subsectionpages {28}{30}}}
\@writefile{nav}{\headcommand {\slideentry {3}{0}{4}{31/31}{}{0}}}
\@writefile{nav}{\headcommand {\beamer@framepages {31}{31}}}
\@writefile{nav}{\headcommand {\beamer@subsectionentry {0}{3}{1}{32}{Arcabou\IeC {\c c}o}}\headcommand {\beamer@subsectionpages {31}{31}}}
\@writefile{nav}{\headcommand {\slideentry {3}{1}{1}{32/32}{Arcabou\IeC {\c c}o}{0}}}
\@writefile{nav}{\headcommand {\beamer@framepages {32}{32}}}
\@writefile{nav}{\headcommand {\slideentry {3}{1}{2}{33/33}{Arcabou\IeC {\c c}o}{0}}}
\@writefile{nav}{\headcommand {\beamer@framepages {33}{33}}}
\@writefile{nav}{\headcommand {\slideentry {3}{1}{3}{34/34}{Arcabou\IeC {\c c}o}{0}}}
\@writefile{nav}{\headcommand {\beamer@framepages {34}{34}}}
\@writefile{nav}{\headcommand {\beamer@subsectionentry {0}{3}{2}{35}{Expressividade}}\headcommand {\beamer@subsectionpages {32}{34}}}
\@writefile{nav}{\headcommand {\slideentry {3}{2}{1}{35/35}{Expressividade}{0}}}
\@writefile{nav}{\headcommand {\beamer@framepages {35}{35}}}
\@writefile{nav}{\headcommand {\slideentry {3}{2}{2}{36/36}{Expressividade}{0}}}
\@writefile{nav}{\headcommand {\beamer@framepages {36}{36}}}
\@writefile{nav}{\headcommand {\beamer@subsectionentry {0}{3}{3}{37}{Algoritmos}}\headcommand {\beamer@subsectionpages {35}{36}}}
\@writefile{nav}{\headcommand {\slideentry {3}{3}{1}{37/37}{Algoritmos}{0}}}
\@writefile{nav}{\headcommand {\beamer@framepages {37}{37}}}
\@writefile{nav}{\headcommand {\slideentry {3}{3}{2}{38/38}{Algoritmos}{0}}}
\@writefile{nav}{\headcommand {\beamer@framepages {38}{38}}}
\@writefile{nav}{\headcommand {\slideentry {3}{3}{3}{39/39}{Algoritmos}{0}}}
\@writefile{nav}{\headcommand {\beamer@framepages {39}{39}}}
\@writefile{nav}{\headcommand {\slideentry {3}{3}{4}{40/40}{Algoritmos}{0}}}
\@writefile{nav}{\headcommand {\beamer@framepages {40}{40}}}
\@writefile{nav}{\headcommand {\slideentry {3}{3}{5}{41/41}{Algoritmos}{0}}}
\@writefile{nav}{\headcommand {\beamer@framepages {41}{41}}}
\@writefile{toc}{\beamer@sectionintoc {4}{Testes}{42}{0}{4}}
\@writefile{nav}{\headcommand {\sectionentry {4}{Testes}{42}{Testes}{0}}}
\@writefile{nav}{\headcommand {\beamer@sectionpages {31}{41}}}
\@writefile{nav}{\headcommand {\beamer@subsectionpages {37}{41}}}
\@writefile{nav}{\headcommand {\beamer@subsectionentry {0}{4}{1}{42}{Testes automatizados}}\headcommand {\beamer@subsectionpages {42}{41}}}
\@writefile{nav}{\headcommand {\slideentry {4}{1}{1}{42/42}{Testes automatizados}{0}}}
\@writefile{nav}{\headcommand {\beamer@framepages {42}{42}}}
\@writefile{nav}{\headcommand {\slideentry {4}{1}{2}{43/43}{Testes automatizados}{0}}}
\@writefile{nav}{\headcommand {\beamer@framepages {43}{43}}}
\@writefile{nav}{\headcommand {\beamer@subsectionentry {0}{4}{2}{44}{Gera\IeC {\c c}\IeC {\~a}o de cen\IeC {\'a}rios}}\headcommand {\beamer@subsectionpages {42}{43}}}
\@writefile{nav}{\headcommand {\slideentry {4}{2}{1}{44/44}{Gera\IeC {\c c}\IeC {\~a}o de cen\IeC {\'a}rios}{0}}}
\@writefile{nav}{\headcommand {\beamer@framepages {44}{44}}}
\@writefile{nav}{\headcommand {\slideentry {4}{2}{2}{45/45}{Gera\IeC {\c c}\IeC {\~a}o de cen\IeC {\'a}rios}{0}}}
\@writefile{nav}{\headcommand {\beamer@framepages {45}{45}}}
\@writefile{nav}{\headcommand {\beamer@subsectionentry {0}{4}{3}{46}{Medi\IeC {\c c}\IeC {\~o}es}}\headcommand {\beamer@subsectionpages {44}{45}}}
\@writefile{nav}{\headcommand {\slideentry {4}{3}{1}{46/46}{Medi\IeC {\c c}\IeC {\~o}es}{0}}}
\@writefile{nav}{\headcommand {\beamer@framepages {46}{46}}}
\@writefile{nav}{\headcommand {\slideentry {4}{3}{2}{47/47}{Medi\IeC {\c c}\IeC {\~o}es}{0}}}
\@writefile{nav}{\headcommand {\beamer@framepages {47}{47}}}
\@writefile{nav}{\headcommand {\slideentry {4}{3}{3}{48/48}{Medi\IeC {\c c}\IeC {\~o}es}{0}}}
\@writefile{nav}{\headcommand {\beamer@framepages {48}{48}}}
\@writefile{nav}{\headcommand {\beamer@subsectionentry {0}{4}{4}{49}{An\IeC {\'a}lise}}\headcommand {\beamer@subsectionpages {46}{48}}}
\@writefile{nav}{\headcommand {\slideentry {4}{4}{1}{49/49}{An\IeC {\'a}lise}{0}}}
\@writefile{nav}{\headcommand {\beamer@framepages {49}{49}}}
\newlabel{fig:kernel_blackbox}{{1}{50}{Análise\relax }{Doc-Start}{}}
\@writefile{snm}{\beamer@slide {fig:kernel_blackbox}{50}}
\@writefile{nav}{\headcommand {\slideentry {4}{4}{2}{50/50}{An\IeC {\'a}lise}{0}}}
\@writefile{nav}{\headcommand {\beamer@framepages {50}{50}}}
\newlabel{fig:kernel_mus}{{2}{51}{Análise\relax }{Doc-Start}{}}
\@writefile{snm}{\beamer@slide {fig:kernel_mus}{51}}
\@writefile{nav}{\headcommand {\slideentry {4}{4}{3}{51/51}{An\IeC {\'a}lise}{0}}}
\@writefile{nav}{\headcommand {\beamer@framepages {51}{51}}}
\newlabel{fig:remainderset_blackbox}{{3}{52}{Análise\relax }{Doc-Start}{}}
\@writefile{snm}{\beamer@slide {fig:remainderset_blackbox}{52}}
\@writefile{nav}{\headcommand {\slideentry {4}{4}{4}{52/52}{An\IeC {\'a}lise}{0}}}
\@writefile{nav}{\headcommand {\beamer@framepages {52}{52}}}
\newlabel{fig:remainderset_maxsat}{{4}{53}{Análise\relax }{Doc-Start}{}}
\@writefile{snm}{\beamer@slide {fig:remainderset_maxsat}{53}}
\@writefile{nav}{\headcommand {\slideentry {4}{4}{5}{53/53}{An\IeC {\'a}lise}{0}}}
\@writefile{nav}{\headcommand {\beamer@framepages {53}{53}}}
\@writefile{nav}{\headcommand {\slideentry {4}{4}{6}{54/54}{An\IeC {\'a}lise}{0}}}
\@writefile{nav}{\headcommand {\beamer@framepages {54}{54}}}
\@writefile{nav}{\headcommand {\beamer@subsectionentry {0}{4}{5}{55}{Conclus\IeC {\~a}o}}\headcommand {\beamer@subsectionpages {49}{54}}}
\@writefile{nav}{\headcommand {\slideentry {4}{5}{1}{55/55}{Conclus\IeC {\~a}o}{0}}}
\@writefile{nav}{\headcommand {\beamer@framepages {55}{55}}}
\@writefile{nav}{\headcommand {\beamer@partpages {1}{55}}}
\@writefile{nav}{\headcommand {\beamer@subsectionpages {55}{55}}}
\@writefile{nav}{\headcommand {\beamer@sectionpages {42}{55}}}
\@writefile{nav}{\headcommand {\beamer@documentpages {55}}}
\@writefile{nav}{\headcommand {\def \inserttotalframenumber {55}}}
