\beamer@endinputifotherversion {3.10pt}
\select@language {brazil}
\beamer@sectionintoc {1}{O Paradigma AGM}{3}{0}{1}
\beamer@sectionintoc {2}{Bases de Cren\IeC {\c c}as}{15}{0}{2}
\beamer@sectionintoc {3}{Proposta}{31}{0}{3}
\beamer@sectionintoc {4}{Testes}{42}{0}{4}
