\relax 
\catcode`"\active
\ifx\hyper@anchor\@undefined
\global \let \oldcontentsline\contentsline
\gdef \contentsline#1#2#3#4{\oldcontentsline{#1}{#2}{#3}}
\global \let \oldnewlabel\newlabel
\gdef \newlabel#1#2{\newlabelxx{#1}#2}
\gdef \newlabelxx#1#2#3#4#5#6{\oldnewlabel{#1}{{#2}{#3}}}
\AtEndDocument{\let \contentsline\oldcontentsline
\let \newlabel\oldnewlabel}
\else
\global \let \hyper@last\relax 
\fi

\select@language{brazil}
\@writefile{toc}{\select@language{brazil}}
\@writefile{lof}{\select@language{brazil}}
\@writefile{lot}{\select@language{brazil}}
\@writefile{toc}{\contentsline {chapter}{Lista de Figuras}{vii}{section*.5}}
\@writefile{toc}{\contentsline {chapter}{\numberline {1}Introdu\IeC {\c c}\IeC {\~a}o}{1}{chapter.1}}
\@writefile{lof}{\addvspace {10\p@ }}
\@writefile{lot}{\addvspace {10\p@ }}
\newlabel{cap:introducao}{{1}{1}{Introdução\relax }{chapter.1}{}}
\@writefile{toc}{\contentsline {section}{\numberline {1.1}Motiva\IeC {\c c}\IeC {\~a}o}{1}{section.1.1}}
\newlabel{sec:motivacao}{{1.1}{1}{Motivação\relax }{section.1.1}{}}
\@writefile{toc}{\contentsline {section}{\numberline {1.2}Organiza\IeC {\c c}\IeC {\~a}o do Trabalho}{1}{section.1.2}}
\newlabel{sec:organizacao_trabalho}{{1.2}{1}{Organização do Trabalho\relax }{section.1.2}{}}
\@writefile{toc}{\contentsline {section}{\numberline {1.3}Nota\IeC {\c c}\IeC {\~a}o}{2}{section.1.3}}
\newlabel{sec:notacao}{{1.3}{2}{Notação\relax }{section.1.3}{}}
\citation{AGM85}
\citation{AM82}
\@writefile{toc}{\contentsline {chapter}{\numberline {2}O Paradigma AGM}{3}{chapter.2}}
\@writefile{lof}{\addvspace {10\p@ }}
\@writefile{lot}{\addvspace {10\p@ }}
\newlabel{cap:paradigma_agm}{{2}{3}{O Paradigma AGM\relax }{chapter.2}{}}
\@writefile{brf}{\backcite{AGM85}{{3}{2}{chapter.2}}}
\@writefile{toc}{\contentsline {section}{\numberline {2.1}Contra\IeC {\c c}\IeC {\~a}o}{3}{section.2.1}}
\newlabel{sec:contracao}{{2.1}{3}{Contração\relax }{section.2.1}{}}
\@writefile{brf}{\backcite{AM82}{{3}{2.1}{section.2.1}}}
\citation{Gar88}
\citation{Gar88}
\citation{AGM85}
\@writefile{toc}{\contentsline {section}{\numberline {2.2}Revis\IeC {\~a}o}{4}{section.2.2}}
\newlabel{sec:revisao}{{2.2}{4}{Revisão\relax }{section.2.2}{}}
\@writefile{brf}{\backcite{Gar88}{{4}{2.2}{section.2.2}}}
\@writefile{toc}{\contentsline {section}{\numberline {2.3}Identidades}{4}{section.2.3}}
\newlabel{sec:identidades}{{2.3}{4}{Identidades\relax }{section.2.3}{}}
\@writefile{brf}{\backcite{Gar88}{{4}{2.3}{section.2.3}}}
\@writefile{toc}{\contentsline {section}{\numberline {2.4}Partial meet}{4}{section.2.4}}
\newlabel{sec:partial_meet}{{2.4}{4}{Partial meet\relax }{section.2.4}{}}
\@writefile{brf}{\backcite{AGM85}{{4}{2.4}{section.2.4}}}
\citation{AGM85}
\@writefile{brf}{\backcite{AGM85}{{5}{2.4}{section.2.4}}}
\@writefile{toc}{\contentsline {section}{\numberline {2.5}Inconveni\IeC {\^e}ncias}{5}{section.2.5}}
\newlabel{sec:inconveniencias}{{2.5}{5}{Inconveniências\relax }{section.2.5}{}}
\citation{Han91}
\citation{Han92}
\citation{AGM85}
\citation{Han91}
\citation{Han92}
\citation{AGM85}
\citation{AGM85}
\@writefile{toc}{\contentsline {chapter}{\numberline {3}Bases de Cren\IeC {\c c}as}{7}{chapter.3}}
\@writefile{lof}{\addvspace {10\p@ }}
\@writefile{lot}{\addvspace {10\p@ }}
\newlabel{cap:bases_de_crencas}{{3}{7}{Bases de Crenças\relax }{chapter.3}{}}
\@writefile{brf}{\backcite{Han91}{{7}{3}{chapter.3}}}
\@writefile{brf}{\backcite{Han92}{{7}{3}{chapter.3}}}
\@writefile{brf}{\backcite{AGM85}{{7}{3}{chapter.3}}}
\@writefile{toc}{\contentsline {section}{\numberline {3.1}Partial meet sobre bases}{7}{section.3.1}}
\newlabel{sec:partial_meet_sobre_bases}{{3.1}{7}{Partial meet sobre bases\relax }{section.3.1}{}}
\@writefile{brf}{\backcite{Han91}{{7}{3.1}{section.3.1}}}
\@writefile{brf}{\backcite{Han92}{{7}{3.1}{section.3.1}}}
\@writefile{brf}{\backcite{AGM85}{{7}{3.1}{section.3.1}}}
\citation{Han92}
\citation{Han92}
\citation{Han94}
\@writefile{brf}{\backcite{AGM85}{{8}{3.1}{section.3.1}}}
\@writefile{brf}{\backcite{Han92}{{8}{3.1}{section.3.1}}}
\@writefile{brf}{\backcite{Han92}{{8}{3.1}{section.3.1}}}
\@writefile{toc}{\contentsline {section}{\numberline {3.2}Kernel}{8}{section.3.2}}
\newlabel{sec:kernel}{{3.2}{8}{Kernel\relax }{section.3.2}{}}
\@writefile{brf}{\backcite{Han94}{{8}{3.2}{section.3.2}}}
\citation{Han94}
\citation{Was00}
\citation{Was00}
\citation{Was00}
\@writefile{brf}{\backcite{Han94}{{9}{3.2}{section.3.2}}}
\@writefile{brf}{\backcite{Was00}{{9}{3.2}{section.3.2}}}
\@writefile{brf}{\backcite{Was00}{{9}{3.2}{section.3.2}}}
\@writefile{brf}{\backcite{Was00}{{9}{3.2}{section.3.2}}}
\citation{Han94}
\citation{Han94}
\citation{Han99}
\citation{FFK06}
\citation{Han99}
\citation{FFK06}
\citation{FFK06}
\@writefile{toc}{\contentsline {chapter}{\numberline {4}Rela\IeC {\c c}\IeC {\~o}es entre constru\IeC {\c c}\IeC {\~o}es}{11}{chapter.4}}
\@writefile{lof}{\addvspace {10\p@ }}
\@writefile{lot}{\addvspace {10\p@ }}
\newlabel{cap:relacoes_entre_construcoes}{{4}{11}{Relações entre construções\relax }{chapter.4}{}}
\@writefile{brf}{\backcite{Han94}{{11}{4}{chapter.4}}}
\@writefile{brf}{\backcite{Han94}{{11}{4}{chapter.4}}}
\@writefile{brf}{\backcite{Han99}{{11}{4}{chapter.4}}}
\@writefile{brf}{\backcite{FFK06}{{11}{4}{chapter.4}}}
\@writefile{brf}{\backcite{Han99}{{11}{4}{chapter.4}}}
\@writefile{brf}{\backcite{FFK06}{{11}{4}{chapter.4}}}
\@writefile{brf}{\backcite{FFK06}{{11}{4}{chapter.4}}}
\@writefile{toc}{\contentsline {chapter}{\numberline {5}Metodologia}{13}{chapter.5}}
\@writefile{lof}{\addvspace {10\p@ }}
\@writefile{lot}{\addvspace {10\p@ }}
\newlabel{cap:metodologia}{{5}{13}{Metodologia\relax }{chapter.5}{}}
\@writefile{toc}{\contentsline {chapter}{\numberline {6}Arcabou\IeC {\c c}o}{15}{chapter.6}}
\@writefile{lof}{\addvspace {10\p@ }}
\@writefile{lot}{\addvspace {10\p@ }}
\newlabel{cap:arcabouco}{{6}{15}{Arcabouço\relax }{chapter.6}{}}
\@writefile{toc}{\contentsline {section}{\numberline {6.1}Arcabou\IeC {\c c}o}{15}{section.6.1}}
\citation{Rib10}
\citation{Kal06}
\@writefile{lof}{\contentsline {figure}{\numberline {6.1}{\ignorespaces Diagrama de classes com diversas implementa\IeC {\c c}\IeC {\~o}es de contra\IeC {\c c}\IeC {\~a}o.\relax }}{16}{figure.caption.6}}
\providecommand*\caption@xref[2]{\@setref\relax\@undefined{#1}}
\newlabel{fig:contraction}{{6.1}{16}{Diagrama de classes com diversas implementações de contração.\relax \relax }{figure.caption.6}{}}
\@writefile{lof}{\contentsline {figure}{\numberline {6.2}{\ignorespaces Diagrama de classes com diversas implementa\IeC {\c c}\IeC {\~o}es de provadores.\relax }}{16}{figure.caption.7}}
\newlabel{fig:reasoners}{{6.2}{16}{Diagrama de classes com diversas implementações de provadores.\relax \relax }{figure.caption.7}{}}
\@writefile{toc}{\contentsline {section}{\numberline {6.2}Black-box}{16}{section.6.2}}
\@writefile{brf}{\backcite{Rib10}{{16}{6.2}{section.6.2}}}
\@writefile{brf}{\backcite{Kal06}{{16}{6.2}{section.6.2}}}
\citation{Rei87}
\citation{GSW89}
\citation{Rib10}
\citation{Kal06}
\citation{MLKS07}
\@writefile{brf}{\backcite{Rei87}{{17}{6.2}{lstnumber.-4.25}}}
\@writefile{brf}{\backcite{GSW89}{{17}{6.2}{lstnumber.-4.25}}}
\@writefile{toc}{\contentsline {section}{\numberline {6.3}Glass-box}{17}{section.6.3}}
\@writefile{brf}{\backcite{Rib10}{{17}{6.3}{section.6.3}}}
\@writefile{brf}{\backcite{Kal06}{{17}{6.3}{section.6.3}}}
\@writefile{brf}{\backcite{MLKS07}{{18}{6.3}{section.6.3}}}
\@writefile{toc}{\contentsline {section}{\numberline {6.4}Cronograma}{18}{section.6.4}}
\newlabel{sec:cronograma}{{6.4}{18}{Cronograma\relax }{section.6.4}{}}
\@writefile{toc}{\contentsline {chapter}{\numberline {7}Gera\IeC {\c c}\IeC {\~a}o de Cen\IeC {\'a}rios}{19}{chapter.7}}
\@writefile{lof}{\addvspace {10\p@ }}
\@writefile{lot}{\addvspace {10\p@ }}
\newlabel{cap:geracao_cenarios}{{7}{19}{Geração de Cenários\relax }{chapter.7}{}}
\@writefile{toc}{\contentsline {chapter}{\numberline {8}Perfil de execu\IeC {\c c}\IeC {\~a}o}{21}{chapter.8}}
\@writefile{lof}{\addvspace {10\p@ }}
\@writefile{lot}{\addvspace {10\p@ }}
\newlabel{cap:perfil_execucao}{{8}{21}{Perfil de execução\relax }{chapter.8}{}}
\@writefile{toc}{\contentsline {section}{\numberline {8.1}Cen\IeC {\'a}rio de teste}{21}{section.8.1}}
\newlabel{sec:cenario_de_teste}{{8.1}{21}{Cenário de teste\relax }{section.8.1}{}}
\@writefile{toc}{\contentsline {section}{\numberline {8.2}Pontos cr\IeC {\'\i }ticos}{21}{section.8.2}}
\newlabel{sec:pontos_criticos}{{8.2}{21}{Pontos críticos\relax }{section.8.2}{}}
\@writefile{toc}{\contentsline {subsection}{\numberline {8.2.1}Copy-on-Write}{22}{subsection.8.2.1}}
\newlabel{sec:copy_on_write}{{8.2.1}{22}{Copy-on-Write\relax }{subsection.8.2.1}{}}
\@writefile{toc}{\contentsline {subsection}{\numberline {8.2.2}LazyISet}{22}{subsection.8.2.2}}
\@writefile{toc}{\contentsline {subsection}{\numberline {8.2.3}LazyISet + Bit Fields}{22}{subsection.8.2.3}}
\newlabel{sec:copy_on_write}{{8.2.3}{22}{LazyISet + Bit Fields\relax }{subsection.8.2.3}{}}
\@writefile{toc}{\contentsline {chapter}{\numberline {9}Compara\IeC {\c c}\IeC {\~a}o de desempenho}{23}{chapter.9}}
\@writefile{lof}{\addvspace {10\p@ }}
\@writefile{lot}{\addvspace {10\p@ }}
\newlabel{cap:comparacao_desempenho}{{9}{23}{Comparação de desempenho\relax }{chapter.9}{}}
\@writefile{toc}{\contentsline {chapter}{\numberline {10}Conclus\IeC {\~a}o}{25}{chapter.10}}
\@writefile{lof}{\addvspace {10\p@ }}
\@writefile{lot}{\addvspace {10\p@ }}
\newlabel{cap:conclusao}{{10}{25}{Conclusão\relax }{chapter.10}{}}
\bibstyle{alpha-ime}
\bibdata{bibliografia}
\bibcite{AM82}{{AGM82}{}{{}}{{}}}
\bibcite{AGM85}{{AGM85}{}{{}}{{}}}
\bibcite{FFK06}{{FFI06}{}{{}}{{}}}
\bibcite{Gar88}{{G{\"a}r88}{}{{}}{{}}}
\bibcite{GSW89}{{GSW89}{}{{}}{{}}}
\bibcite{Han91}{{Han91}{}{{}}{{}}}
\bibcite{Han92}{{Han92}{}{{}}{{}}}
\bibcite{Han94}{{Han94}{}{{}}{{}}}
\bibcite{Han99}{{Han99}{}{{}}{{}}}
\bibcite{Kal06}{{Kal06}{}{{}}{{}}}
\bibcite{MLKS07}{{LS08}{}{{}}{{}}}
\bibcite{Rei87}{{Rei87}{}{{}}{{}}}
\bibcite{Rib10}{{Rib10}{}{{}}{{}}}
\bibcite{Was00}{{Was00}{}{{}}{{}}}
\@writefile{toc}{\contentsline {chapter}{Refer\^encias Bibliogr\'aficas}{27}{section*.9}}
\ttl@finishall
\global\NAT@numberstrue
