\BOOKMARK [0][]{section*.5}{Lista de Figuras}{}
\BOOKMARK [0][]{chapter.1}{Introdu\347\343o}{}
\BOOKMARK [1][]{section.1.1}{Motiva\347\343o}{chapter.1}
\BOOKMARK [1][]{section.1.2}{Organiza\347\343o do Trabalho}{chapter.1}
\BOOKMARK [1][]{section.1.3}{Nota\347\343o}{chapter.1}
\BOOKMARK [0][]{chapter.2}{O Paradigma AGM}{}
\BOOKMARK [1][]{section.2.1}{Contra\347\343o}{chapter.2}
\BOOKMARK [1][]{section.2.2}{Revis\343o}{chapter.2}
\BOOKMARK [1][]{section.2.3}{Identidades}{chapter.2}
\BOOKMARK [1][]{section.2.4}{Partial meet}{chapter.2}
\BOOKMARK [1][]{section.2.5}{Inconveni\352ncias}{chapter.2}
\BOOKMARK [0][]{chapter.3}{Bases de Cren\347as}{}
\BOOKMARK [1][]{section.3.1}{Partial meet sobre bases}{chapter.3}
\BOOKMARK [1][]{section.3.2}{Kernel}{chapter.3}
\BOOKMARK [0][]{chapter.4}{Rela\347\365es entre constru\347\365es}{}
\BOOKMARK [0][]{chapter.5}{Metodologia}{}
\BOOKMARK [0][]{chapter.6}{Arcabou\347o}{}
\BOOKMARK [1][]{section.6.1}{Arcabou\347o}{chapter.6}
\BOOKMARK [1][]{section.6.2}{Black-box}{chapter.6}
\BOOKMARK [1][]{section.6.3}{Glass-box}{chapter.6}
\BOOKMARK [1][]{section.6.4}{Cronograma}{chapter.6}
\BOOKMARK [0][]{chapter.7}{Gera\347\343o de Cen\341rios}{}
\BOOKMARK [0][]{chapter.8}{Perfil de execu\347\343o}{}
\BOOKMARK [1][]{section.8.1}{Cen\341rio de teste}{chapter.8}
\BOOKMARK [1][]{section.8.2}{Pontos cr\355ticos}{chapter.8}
\BOOKMARK [2][]{subsection.8.2.1}{Copy-on-Write}{section.8.2}
\BOOKMARK [2][]{subsection.8.2.2}{LazyISet}{section.8.2}
\BOOKMARK [2][]{subsection.8.2.3}{LazyISet + Bit Fields}{section.8.2}
\BOOKMARK [0][]{chapter.9}{Compara\347\343o de desempenho}{}
\BOOKMARK [0][]{chapter.10}{Conclus\343o}{}
\BOOKMARK [0][]{section*.9}{Refer\352ncias Bibliogr\341ficas}{}
